…
Internally the `listMetaGenomes()` function downloads the assembly_summary.txt file from ftp://ftp.ncbi.nlm.nih.gov/genomes/genbank/metagenomes/ to retrieve
available metagenome information. This procedure might take a few seconds during the first run of `listMetaGenomes()`. Subsequently, the assembly_summary.txt file will be stored in the `tempdir()` directory to
achieve a much faster access of this information during following uses of `listMetaGenomes()`.

In case users wish to retrieve detailed information about available metagenome projects they can specify the `details = TRUE` argument.

```{r,eval=FALSE}
# show all elements of the data.frame
options(tibble.print_max = Inf)
# detailed information on available metagenomes at NCBI Genbank
listMetaGenomes(details = TRUE)
```

```
# A tibble: 857 x 21
   assembly_accession bioproject    biosample     wgs_master refseq_category  taxid species_taxid
                <chr>      <chr>        <chr>          <chr>           <chr>  <int>         <int>
1     GCA_000206185.1 PRJNA32359 SAMN02954317 AAGA00000000.1              na 256318        256318
2     GCA_000206205.1 PRJNA32355 SAMN02954315 AAFZ00000000.1              na 256318        256318
3     GCA_000206225.1 PRJNA32357 SAMN02954316 AAFY00000000.1              na 256318        256318
4     GCA_000208265.2 PRJNA17779 SAMN02954240 AASZ00000000.1              na 256318        256318
5     GCA_000208285.1 PRJNA17657 SAMN02954268 AATO00000000.1              na 256318        256318
6     GCA_000208305.1 PRJNA17659 SAMN02954269 AATN00000000.1              na 256318        256318
7     GCA_000208325.1 PRJNA16729 SAMN02954263 AAQL00000000.1              na 256318        256318
8     GCA_000208345.1 PRJNA16729 SAMN02954262 AAQK00000000.1              na 256318        256318
9     GCA_000208365.1 PRJNA13699 SAMN02954283 AAFX00000000.1              na 256318        256318
10    GCA_900010595.1 PRJEB11544 SAMEA3639840 CZPY00000000.1              na 256318        256318
# ... with 847 more rows, and 14 more variables: organism_name <chr>, infraspecific_name <chr>,
#   isolate <chr>, version_status <chr>, assembly_level <chr>, release_type <chr>, genome_rep <chr>,
#   seq_rel_date <date>, asm_name <chr>, submitter <chr>, gbrs_paired_asm <chr>, paired_asm_comp <chr>,
#   ftp_path <chr>, excluded_from_refseq <chr>
```
…
