Sequence Retrieval
…
# checking whether or not the Homo sapiens 
# genome is avaialable for download
is.genome.available(db = "genbank", organism = "Homo sapiens")

A reference or representative genome assembly is available for 'Homo sapiens'.                           
More than one entry was found for 'Homo sapiens'. Please consider to run the function 'is.genome.available()' and specify 'is.genome.available(organism = Homo sapiens, db = genbank, details = TRUE)'. This will allow you to select the 'assembly_accession' identifier that can then be specified in all get*() functions.
[1] TRUE

Now with details = TRUE.

# checking whether or not the Homo sapiens 
# genome is avaialable for download
is.genome.available(db = "genbank", organism = "Homo sapiens", details = TRUE)

 A tibble: 1,041 x 23                                                                                   
   assembly_accession bioproject biosample  wgs_master refseq_category
   <chr>              <chr>      <chr>      <chr>      <chr>          
 1 GCA_000001405.28   PRJNA31257 NA         NA         reference geno
 2 GCA_000002115.2    PRJNA1431  SAMN02981 AADD00000 na             
 3 GCA_000002125.2    PRJNA19621 SAMN02981 ABBA00000 na             
 4 GCA_000002135.3    PRJNA10793 NA         NA         na             
 5 GCA_000004845.2    PRJNA42199 SAMN00003 ADDF00000 na             
 6 GCA_000005465.1    PRJNA42201 NA         DAAB00000 na             
 7 GCA_000181135.1    PRJNA28335 SAMN00001 ABKV00000 na             
 8 GCA_000185165.1    PRJNA59877 SAMN02981 AEKP00000 na             
 9 GCA_000212995.1    PRJNA19621 SAMN02981 ABSL00000 na             
10 GCA_000252825.1    PRJNA19621 SAMN02981 ABBA00000 na             
#  with 1,031 more rows, and 18 more variables: taxid <int>,
#   species_taxid <int>, organism_name <chr>,
#   infraspecific_name <chr>, isolate <chr>, version_status <chr>,
#   assembly_level <chr>, release_type <chr>, genome_rep <chr>,
#   seq_rel_date <date>, asm_name <chr>, submitter <chr>,
#   gbrs_paired_asm <chr>, paired_asm_comp <chr>, ftp_path <chr>,
#   excluded_from_refseq <chr>, X22 <chr>, X23 <chr>
…
Users can also check the availability of proteomes in the UniProt database by specifying:

# retrieve information from UniProt
is.genome.available(db = "uniprot", "Homo sapiens", details = FALSE)

A reference or representative genome assembly is available for 'Homo sapiens'.
More than one entry was found for 'Homo sapiens'. Please consider to run the function 'is.genome.available()' and specify 'is.genome.available(organism = Homo sapiens, db = uniprot, details = TRUE)'. This will allow you to select the 'assembly_accession' identifier that can then be specified in all get*() functions.
[1] TRUE

or with details:

# retrieve information from UniProt
is.genome.available(db = "uniprot", "Homo sapiens", details = TRUE)

 A tibble: 29 x 16
   name          description        isReferenceProte isRepresentativ
   <chr>         <chr>              <lgl>             <lgl>           
 1 Homo sapiens Homo sapiens (Hom TRUE              TRUE            
 2 Human associ NA                 FALSE             TRUE            
 3 Human respir NA                 FALSE             FALSE           
 4 Human respir NA                 FALSE             FALSE           
 5 Human respir NA                 FALSE             FALSE           
 6 Human respir NA                 FALSE             FALSE           
 7 Human respir NA                 FALSE             FALSE           
 8 Human respir NA                 FALSE             FALSE           
 9 Human respir NA                 FALSE             FALSE           
10 Human respir NA                 FALSE             FALSE           
#  with 19 more rows, and 12 more variables:
#   genomeAssembly <df[,4]>, dbReference <list>, component <list>,
#   reference <list>, annotationScore <df[,1]>, scores <list>,
#   upid <chr>, modified <dbl>, taxonomy <int>, source <chr>,
#   superregnum <chr>, strain <chr>
…
