…
In some cases users will find several entries for the same scientific name.
This might be due to the fact that ecotypes, strains, or other types of sub-species
are available in the respective databases.

For example. when we search for the bacterium `Mycobacterium tuberculosis` in NCBI RefSeq we get 5377 hits.


```r
is.genome.available(organism = "Mycobacterium tuberculosis", db = "refseq", details = TRUE)
```

```
A tibble: 5,377 x 21
   assembly_accessi… bioproject biosample wgs_master refseq_category  taxid
   <chr>             <chr>      <chr>     <chr>      <chr>            <int>
 1 GCF_000008585.1   PRJNA2241… SAMN0260… NA         na               83331
 2 GCF_000016145.1   PRJNA2241… SAMN0260… NA         na              419947
 3 GCF_000016925.1   PRJNA2241… SAMN0010… NA         na              336982
 4 GCF_000023625.1   PRJNA2241… SAMN0076… NA         na              478434
 5 GCF_000152105.1   PRJNA2241… SAMN0259… ADHQ00000… na              675512
 6 GCF_000153685.2   PRJNA2241… SAMN0308… NA         na              395095
 7 GCF_000154585.2   PRJNA2241… SAMN0308… NA         na              478433
 8 GCF_000154605.2   PRJNA2241… SAMN0010… NA         na              478435
 9 GCF_000155795.1   PRJNA2241… SAMN0259… ABVM00000… na              555461
10 GCF_000159755.1   PRJNA2241… SAMN0259… ACHP00000… na              611303
# ... with 5,367 more rows, and 15 more variables: species_taxid <int>,
#   organism_name <chr>, infraspecific_name <chr>, isolate <chr>,
#   version_status <chr>, assembly_level <chr>, release_type <chr>,
#   genome_rep <chr>, seq_rel_date <date>, asm_name <chr>, submitter <chr>,
#   gbrs_paired_asm <chr>, paired_asm_comp <chr>, ftp_path <chr>,
#   excluded_from_refseq <chr>
```
…
