Functional Annotation with BioMart, GO, and KeGG
…
#> # A tibble: 5 × 3
#>                          dataset                  description   version
#>                            <chr>                        <chr>     <chr>
#> 1         oanatinus_gene_ensembl       Platypus genes (OANA5)     OANA5
#> 2        cporcellus_gene_ensembl   Guinea Pig genes (cavPor3)   cavPor3
#> 3        gaculeatus_gene_ensembl Stickleback genes (BROAD S1)  BROAD S1
#> 4         lafricana_gene_ensembl   Elephant genes (Loxafr3.0) Loxafr3.0
#> 5 itridecemlineatus_gene_ensembl     Squirrel genes (spetri2)   spetri2

Now you can select the dataset hsapiens_gene_ensembl and list all available attributes that can be retrieved from this dataset.

tail(getDatasets(mart = "ENSEMBL_MART_ENSEMBL") , 38)

#> # A tibble: 38 × 3
#>                     dataset                                 description                version
#>                       <chr>                                       <chr>                  <chr>
#> 1     hsapiens_gene_ensembl                    Human genes (GRCh38.p10)             GRCh38.p10
#> 2     pformosa_gene_ensembl Amazon molly genes (Poecilia_formosa-5.1.2) Poecilia_formosa-5.1.2
#> 3   tbelangeri_gene_ensembl                  Tree Shrew genes (tupBel1)                tupBel1
#> 4        mfuro_gene_ensembl                 Ferret genes (MusPutFur1.0)           MusPutFur1.0
#> 5      ggallus_gene_ensembl           Chicken genes (Gallus_gallus-5.0)      Gallus_gallus-5.0
#> 6  xtropicalis_gene_ensembl                     Xenopus genes (JGI 4.2)                JGI 4.2
#> 7    ecaballus_gene_ensembl                     Horse genes (Equ Cab 2)              Equ Cab 2
#> 8      pabelii_gene_ensembl                     Orangutan genes (PPYG2)                  PPYG2
#> 9   xmaculatus_gene_ensembl               Platyfish genes (Xipmac4.4.2)            Xipmac4.4.2
#> 10      drerio_gene_ensembl                    Zebrafish genes (GRCz10)                 GRCz10
#> # ... with 28 more rows
…
