Retrieve the assembly_summary.txt file from NCBI genbank metagenomes — getMetaGenomeSummary • biomartr
…
getMetaGenomeSummary()

    See also

    getKingdomAssemblySummary, 
getSummaryFile

    Examples

meta.summary <- getMetaGenomeSummary()
meta.summary
#> # A tibble: 8,845 x 21
#>    assembly_accession bioproject biosample  wgs_master   refseq_category  taxid
#>    <chr>              <chr>      <chr>      <chr>        <chr>            <int>
#>  1 GCA_000206185.1    PRJNA32359 SAMN02954… AAGA0000000… na              256318
#>  2 GCA_000206205.1    PRJNA32355 SAMN02954… AAFZ0000000… na              256318
#>  3 GCA_000206225.1    PRJNA32357 SAMN02954… AAFY0000000… na              256318
#>  4 GCA_000208265.2    PRJNA17779 SAMN02954… AASZ0000000… na              256318
#>  5 GCA_000208285.1    PRJNA17657 SAMN02954… AATO0000000… na              256318
#>  6 GCA_000208305.1    PRJNA17659 SAMN02954… AATN0000000… na              256318
#>  7 GCA_000208325.1    PRJNA16729 SAMN02954… AAQL0000000… na              256318
#>  8 GCA_000208345.1    PRJNA16729 SAMN02954… AAQK0000000… na              256318
#>  9 GCA_000208365.1    PRJNA13699 SAMN02954… AAFX0000000… na              256318
#> 10 GCA_900007175.1    PRJEB10268 SAMEA3501… CZKA0000000… na              256318
#> # ... with 8,835 more rows, and 15 more variables: species_taxid <int>,
#> #   organism_name <chr>, infraspecific_name <chr>, isolate <chr>,
#> #   version_status <chr>, assembly_level <chr>, release_type <chr>,
#> #   genome_rep <chr>, seq_rel_date <date>, asm_name <chr>, submitter <chr>,
#> #   gbrs_paired_asm <chr>, paired_asm_comp <chr>, ftp_path <chr>,
#> #   excluded_from_refseq <chr>
…
